{
    "api_key_missing": "Der API Key fehlt.",
    "quote_deleted": "Zitat gelöscht",
    "redacted_too_long": "Wurde entfernt da es zu lang ist.",
    "trigger": "Auslöser",
    "response": "Antwort",
    "fw_cleared": "Alle gefiltereten Wörter und Kanaleinstellungen gelöscht.",
    "aar_disabled": "Nutzer, die diesen Server beitreten, erhalten keine Rollen automatisch.",
    "bandm": "Du wurdest von Server {0} gebannt.\nGrund: {1}",
    "banned_user": "Nutzer gebannt",
    "byedel_off": "Die automatische Löschung der Verabschiedungs Nachrichten wurde deaktiviert.",
    "byedel_on": "Verabschiedungs Nachrichten werden nach {0} Sekunden gelöscht.",
    "byemsg_cur": "Derzeitige Verabschiedungs Nachricht: {0}",
    "byemsg_enable": "Beim schreiben von {0} werden die Verabschiedungs Nachrichten aktiviert.",
    "byemsg_new": "Neue Verabschiedungs Nachricht gesetzt",
    "bye_off": "Abschiedansagen ausgeschaltet.",
    "bye_on": "Abschiedansagen in diesem Kanal angeschaltet.",
    "cr": "Rolle {0} erfolgreich erstellt",
    "dr": "Rolle {0} wurde gelöscht.",
    "createtextchan": "Textkanal {0} wurde erstellt.",
    "createvoich": "Sprachkanal {0} wurde erstellt.",
    "deafen": "Erfolgreich taub gestellt.",
    "delmsg_off": "Ich werde nicht mehr automatisch Nachrichten löschen, in denen erfolgreich Befehle auf dem Server ausgeführt wurden.",
    "delmsg_on": "Ich werde automatisch Nachrichten löschen, in denen erfolgreich Befehle auf dem Server ausgeführt wurden. ",
    "delmsg_channel_off": "Ich werde niemals automatisch Nachrichten löschen, in denen erfolgreich Befehle in diesem Kanal ausgeführt wurden.",
    "delmsg_channel_on": "Ich werde immer automatisch Nachrichten löschen, in denen erfolgreich Befehle in diesem Kanal ausgeführt wurden, trotz der Server Einstellungen.",
    "delmsg_channel_inherit": "Ich werde nur automatisch Nachrichten löschen, in denen erfolgreich Befehle in diesem Kanal ausgeführt wurden, wenn diese Funktion auf dem Server aktiviert ist.",
    "deltextchan": "Textkanal {0} gelöscht.",
    "delvoich": "Sprachkanal {0} gelöscht.",
    "fwall_start": "Ich werde die DM's an alle Eigentümer schicken.",
    "fwall_stop": "Ich werde die DM's nur an den ersten Eigentümer schicken",
    "fwdm_start": "Von jetzt an, werde ich DMs schicken.",
    "fwdm_stop": "Von jetzt an, werde ich aufhören DMs zu schicken.",
    "greetdel_off": "Automatisches Löschen der Willkommensnachrichten wurde deaktiviert.",
    "greetdel_on": "Willkommensnachrichten werden nach {0} Sekunden gelöscht.",
    "greetdmmsg_cur": "Derzeite DM Willkommensnachricht.",
    "greetdmmsg_enable": "Aktiviere DM Willkommensnachrichten durch das Schreiben von {0}",
    "greetdmmsg_new": "Neue DM Willkommensnachricht gesetzt",
    "greetdm_off": "DM Willkommensnachricht deaktiviert.",
    "greetdm_on": "DM Willkommensnachricht aktiviert.",
    "greetmsg_cur": "Derzeite Willkommensnachricht",
    "greetmsg_enable": "Aktiviere Willkommensnachrichten durch das Schreiben von {0}",
    "greetmsg_new": "Neue Willkommensnachricht gesetzt",
    "greet_off": "Willkommensnachrichten deaktivert.",
    "greet_on": "Willkommensnachrichten in diesem Kanal aktiviert.",
    "hierarchy": "Du kannst diesen Command nicht an einen Nutzer mit einem höheren oder gleichwertigen Rang in der Hierarchi ausführen.",
    "invalid_format": "Ungültiges Eingabeformat.",
    "kickdm": "Du wurdest von {0} gekickt.\nGrund: {1}",
    "kicked_user": "Nutzer gekickt",
    "lang_list": "Liste aller Sprachen",
    "lang_set_bot": "Standard Schauplatz des Bots ist jetzt {0} - {1}",
    "lang_set_bot_show": "Bot's Sprache ist {0} - {1}",
    "lang_set": "Die Sprache des Server ist {0} - {1}",
    "message_sent": "Nachricht gesendet.",
    "mute_error": "Ich habe dafür wahrscheinlich nicht genügend Rechte.",
    "mute_role_set": "Neue Stumm Role gesetzt",
    "prot_active": "Aktive Schutzmaßnahmen.",
    "prot_disable": "{0}  wurde **deaktiviert** auf diesem Server",
    "prot_enable": "{0} aktiviert",
    "prot_none": "Keine Schutzmaßnahmen aktiviert.",
    "raid_cnt": "Nutzer Grenzwert muss zwischen {0} und {1} sein.",
    "raid_stats": "Wenn {0} oder mehr Mitglieder in {1} Sekunde beitreten, werde ich sie {2}.",
    "raid_time": "Zeit muss zwischen {0} und {1} Sekunde sein.",
    "rar": "Erfolgreich alle Rollen des Nutzers {0} entfernt.",
    "rc": "Farbe der Rolle {0} wurde geändert.",
    "renrole": "Rolle umbenannt.",
    "reprm": "Entfernen der Spiel Nachricht: {0}",
    "role_added": "Rolle {0} wurde zur Liste in Gruppe {1} hinzugefügt.",
    "role_in_list": "Rolle {0} ist schon auf der Liste.",
    "self_assign_already": "Du hast schon die {0} Rolle.",
    "self_assign_excl": "Selbst hinzufügbare Rollen sind nun exklusiv",
    "self_assign_list": "Es gibt {0} selbst hinzufügbare Rollen",
    "self_assign_not": "Diese Rolle kann man sich nicht selbst hinzufügen",
    "self_assign_not_have": "Du hast die Rolle {0} nicht.",
    "self_assign_no_excl": "Selbst hinzufügbare Rollen sind nun nicht exklusiv",
    "self_assign_perms": "Ich kann dir diese Rolle nicht hinzufügen. `Ich kann keine Rollen an Besitzer oder Rollen höher als meine Rolle in der Rollenhierarchie vergeben.`",
    "self_assign_rem": "{0} wurde entfernt von der Liste der selbst-zuweisbaren Rollen.",
    "self_assign_remove": "Du hast nichtmehr die {0} Rolle.",
    "self_assign_success": "Du hast jetzt die {0} Rolle.",
    "adsarm_enable": "Automatisches Löschen von `{0}iam` und `{0}iamn` Antworten wurde aktiviert.",
    "adsarm_disable": "Der Bot wird nichtmehr `{0}iam` und `{0}iamn` Antworten löschen.",
    "setrole": "Erfolgreich die Rolle {0} dem Benutzer {1} hinzugefügt.",
    "set_channel_name": "Neuer Kanal Name gesetzt.",
    "shutting_down": "Sich schließen.",
    "spam_ignore": "{0} wird diesen Kanal ignorieren.",
    "spam_not_ignore": "{0} wird nicht mehr diesen Kanal ignorieren.",
    "spam_stats": "Wenn ein Nutzer {0} gleiche Nachrichten in Folge schickt, werde ich ihn {1}.\n__IgnorierteKanäle__: {2}",
    "undeafen": "Erfolgreiches entfernen der Hörunfähigkeit.",
    "username": "Benutzername",
    "user_chat_mute": "{0} wurde für das Schreiben stummgeschaltet.",
    "user_chat_unmute": "Die Stummschaltung für {0} wurde für das Schreiben aufgehoben.",
    "user_muted": "{0} wurde vom Text Kanal und Sprach Kanal *stumm* geschaltet.",
    "user_unmuted": "{0} wurde von Text und Sprach Kanälen entstummt.",
    "user_voice_mute": "{0} wurde im Sprach Kanal stummgeschaltet.",
    "user_voice_unmute": "{0} wurde im **Sprachkanal entstummt**.",
    "sbdm": "Du wurdest soft-banned vom {0} Server.\nGrund: {1}",
    "sb_user": "Nuzter wurde soft-gebannt.",
    "better_luck": "Viel Glück beim nächsten Mal ^-^",
    "roll": "Du hast eine {0} gewürfelt",
    "br_win": "Glückwunsch! Du hast {0} gewonnen weil du über eine {1} gewürfelt hast",
    "flip_guess": "Du hast es erraten! Du hast {0} gewonnen.",
    "flip_results": "Warf {0} Münzen. {1} Kopf, {2} Zahl.",
    "has": "{0} hat {1}",
    "leaderboard": "Rangliste",
    "mass_award": "Es wurden {0} an {1} Nutzer von der Rolle {2} verteilt",
    "max_bet_limit": "Du kannst nicht mehr als {0} wetten",
    "min_bet_limit": "Du kannst nicht weniger als {0} wetten",
    "not_enough": "Du hast nicht genug {0}",
    "raffled_user": "Nutzer verlost",
    "slot_bet": "Wette",
    "slot_jackpot": "WOAAHHHHHH!!! Glückwünsch!!! x{0}",
    "slot_single": "Eine Einzige {0}, x{1}",
    "slot_three": "Wow! Du hast Glück! Drei der selben Art! x{0}",
    "slot_two": "Gute Arbeit! Zwei {0} - Wette x{1}",
    "won": "Gewonnen",
    "transactions": "Transaktion von dem Nutzer {0}",
    "commands_instr": "Schreibe `{0}h CommandName` um die Hilfe für diesen spezifischen Command zu sehen, zum Beispiel `{0}h {0}8ball`",
    "command_not_found": "Ich kann diesen Befehl nicht finden. Bitte versichere dich, dass dieser Befehl existiert bevor du es nochmal ausprobierst.",
    "module_not_found": "Dieses Modul existiert nicht.",
    "module_not_found_or_cant_exec": "Entweder das Modul existiert nicht oder du kannst eine Befehle in diesem bestimmten Modul benutzen.",
    "usage": "Nutzung",
    "options": "Optionen",
    "requires": "Benötigt",
    "blacklisted_tag_list": "Liste der Tags auf der schwarzen Liste:",
    "blacklisted_tag_add": "Tag {0} ist jetzt auf der schwarzen Liste gesetzt.",
    "blacklisted_tag_remove": "Tag {0} ist nicht mehr auf der schwarzen Liste gesetzt.",
    "animal_race": "Tierrennen",
    "animal_race_failed": "Rennen konnte aufgrund fehlender Teilnehmer nicht gestartet werden.",
    "animal_race_join": "{0} tritt als {1} bei",
    "animal_race_join_instr": "Tippe {0}Rennen um dem Rennen beizutreten",
    "animal_race_starting": "Startet in {0} Sekunden wenn der Raum voll ist.",
    "animal_race_won": "{0} als {1} hat das Rennen gewonnen!",
    "dice_invalid_number": "Ungültige Nummer wurde angegeben. Du kannst {0}-1",
    "dice_rolled": "würfelte {0}",
    "dice_rolled_num": "Würfel geworfen: {0}",
    "changes_of_heart": "Veränderung des Herzen",
    "claimed_by": "Eingefordert von",
    "divorces": "Scheidungen",
    "likes": "Vorlieben",
    "price": "Preis",
    "waifu": "Waifu",
    "waifus_none": "Es wurden bis jetzt keine Waifus eingefordert.",
    "waifus_top_waifus": "Top Waifus",
    "waifu_claimed": "hat {0} als deren Waifu für {1} eingefordert!",
    "waifu_divorced_like": "Du hast dich von einer Waifu, die dich mag, geschieden. Du herzloses Monster. {0} hat {1} als Entschädigung gekriegt.",
    "waifu_egomaniac": "Du kannst keine Verwandtschaft auf dich setzen, du Egoman.",
    "waifu_fulfilled": "🎉 Deren Liebe ist in Erfüllung gegangen! 🎉\n{0}s neuer Wert ist {1}!",
    "waifu_not_enough": "Du musst {0} bezahlen oder mehr um diese Waifu zu fordern!",
    "waifu_not_yours": "Diese Waifu ist nicht deine.",
    "waifu_not_yourself": "Du kannst dich nicht selbst fordern.",
    "waifu_recent_divorce": "Du hast dich vor kurzem geschieden. Du musst {0} Stunden und {1} Minuten warten um dich nochmal scheiden zu können.",
    "waifu_transfer_fail": "Du bist nicht der Besitzer dieser Waifu.",
    "waifu_transfer_success": "Forderung von {0} wurde von {1} zu {2} übergetragen!",
    "nobody": "Niemand",
    "waifu_divorced_notlike": "Du hast dich von einer Waifu geschieden die dich nicht mag. Du bekamst {0} zurück.",
    "waifu_reset": "Deine Waifu Statistik wurde zurückgesetzt.",
    "waifu_reset_fail": "Konnte die Waifu Stats nicht zurücksetzen. Stelle sicher das du genügeng Währung hast.",
    "waifu_reset_confirm": "Dies wird deine Waifu Statistk zurücksetzen",
    "acrophobia": "Akrophobie",
    "acro_ended_no_sub": "Spiel beendet mit keinen einreichungen.",
    "acro_no_votes_cast": "Keine Abstimmung erfolgt. Spiel endete ohne Gewinner.",
    "acro_nym_was": "Akronym war {0}.",
    "acro_running": "Akrophobie-Spiel ist bereits aktiv in diesem Raum.",
    "acro_started": "Das Spiel hat gestartet. Beginne einen Satz mit dem folgenden Akronym: {0}.",
    "acro_started_footer": "Du hast {0} Sekunden um eine Idee einzureichen.",
    "acro_vote": "Stimme durchs Schreiben einer Nummer der Vorlage ab",
    "acro_vote_cast": "{0} hat seine Stimme abgegeben!",
    "acro_winner": "{0} ist Gewinner mit {1} Punkten.",
    "acro_winner_only": "{0} ist Gewinner, da nur eine Einreichung abgegeben wurde!",
    "question": "Frage",
    "rps_draw": "Es ist Unentschieden! Beide haben {0} gewählt",
    "rps_win": "{0} gewinnt! {1} schlägt {2}",
    "submissions_closed": "Einreichungen geschlossen",
    "total_average": "Gesamt: {0} Durchschnitt: {1}",
    "category": "Kategorie",
    "cleverbot_disabled": "Deaktivieren des Cleverbots für diesen Kanal.",
    "cleverbot_enabled": "Aktivieren des Cleverbots für diesen Kanal.",
    "curgen_disabled": "Währungs Generation wurde für diesen Kanal deaktiviert.",
    "curgen_enabled": "Einkommens Generation wurde für diesen Kanal aktiviert.",
    "curgen_pl": "{0} zufälliges {1} ist aufgetaucht!",
    "curgen_sn": "Ein zufälliges {0} ist aufgetaucht!",
    "game_started": "Spiel gestartet",
    "hangman_game_started": "Hängemännchen gestartet",
    "hangman_running": "Hängemännchen läuft bereits in diesem Raum.",
    "hangman_types": "Liste an \"{0}Galgenmännchen\" Wort Typen:",
    "no_results": "Keine Ergebnisse.",
    "picked": "hat {0} aufgehoben",
    "planted": "{0} hat {1} gepflanzt",
    "trivia_already_running": "Quizspiel läuft bereits auf diesem Server.",
    "trivia_game": "Quizspiel",
    "trivia_guess": "{0} hat es erraten! Die Antwort war: {1}",
    "trivia_none": "Kein Quiz läuft auf diesem Server.",
    "trivia_points": "{0} hat {1} Punkte",
    "trivia_stopping": "Quiz wird nach dieser Frage vorrüber sein.",
    "trivia_times_up": "Zeit abgelaufen! Die richtige Antwort war {0}",
    "ttt_against_yourself": "Du kannst nicht gegen dich selbst spielen.",
    "ttt_already_running": "TicTacToe läuft bereits in diesem Raum.",
    "ttt_a_draw": "Ein Unentschieden!",
    "ttt_created": "hat ein TicTacToe-Spiel erstellt.",
    "ttt_has_won": "{0} hat gewonnen!",
    "ttt_matched_three": "3 Gleiche",
    "ttt_no_moves": "Keine Züge übrig!",
    "ttt_time_expired": "Zeit abgelaufen!",
    "ttt_users_move": "{0}'s Zug",
    "vs": "{0} gegen {1}",
    "attempting_to_queue": "Versuche {0} Lieder in die Warteschlange zu setzen...",
    "fairplay": "Faires Spiel",
    "id": "Id",
    "invalid_input": "Ungültige Eingabe.",
    "must_be_in_voice": "Du musst in einem Sprachkanal sein auf diesem Server.",
    "name": "Name",
    "no_player": "Keine aktiven Musik Spieler.",
    "no_search_results": "Keine Suchergebnisse.",
    "player_queue": "Abspiel Liste - Seite {0}/{1}",
    "playlist_queue_complete": "Playlist Warteschlange fertig.",
    "repeating_track": "Wiederhole Lied",
    "volume_set": "Lautstärke auf {0}% gesetzt.",
    "acm_disable": "BenutzungALLER MODULE in Kanal {0} abgeschaltet.",
    "acm_enable": "Benutzung ALLER MODULE in Kanal {0} eingeschaltet.",
    "arm_disable": "Benutzung ALLER MODULE für Rolle {0} abgeschaltet.",
    "arm_enable": "Benutzung ALLER MODULE für Rolle {0} eingeschaltet.",
    "asm_disable": "Benutzung ALLER MODULE auf diesem Server abgeschaltet.",
    "asm_enable": "Benutzung ALLER MODULE auf diesem Server eingeschaltet.",
    "aum_disable": "Benutzung ALLER MODULE für Benutzer {0} abgeschaltet.",
    "aum_enable": "Benutzung ALLER MODULE für Benutzer {0} eingeschaltet.",
    "blacklisted": "Blacklisted {0} mit den IDs: {1}",
    "unblacklisted": "Von der schwarzen Liste runtergesetzt mit den IDs: {1}",
    "cmdcd_add": "Befehl {0} hat nun eine Abklingzeit von {1}s",
    "cmdcd_cleared": "Befehl {0} hat keine Wartezeit mehr und alle bestehenden Wartezeiten wurden entfernt.",
    "cmdcd_none": "Keine Kommandowartezeit gesetzt.",
    "cx_disable": "Deaktivieren des Benutzen von {0} {1} im Kanal {2}.",
    "cx_enable": "Aktivieren des Benutzen von {0} {1} im Kanal {2}.",
    "filter_word_add": "Das Wort {0} wurde zu der Liste an gefilterten Wörtern hinzugefügt.",
    "filter_word_list": "Liste der gefilterten Wörter",
    "filter_word_remove": "Wort {0} wurde von der Liste der gefilterten Wörter entfernt.",
    "invalid_second_param_between": "Ungültiger zweiter Parameter. (Es muss eine Nummer zwischen {0} und {1} sein)",
    "invite_filter_channel_off": "Einladungsfilterung wurde in diesem Kanal deaktiviert.",
    "invite_filter_channel_on": "Einladungsfilterung wurde in diesem Kanalaktiviert.",
    "invite_filter_server_off": "Einladungsfilterung wurde in diesem Server deaktiviert.",
    "invite_filter_server_on": "Einladungsfilterung wurde in diesem Server aktiviert.",
    "moved_permission": "Bewegen der Berechtigung {0} von #{1} zu #{2}",
    "perm_not_found": "Kann keine Berechtigungen im Index finden #{0}",
    "of_command": "Befehl",
    "of_module": "Modul",
    "page": "Seite {0}",
    "permrole": "Derzeitige Berechtigungs Rolle ist {0}.",
    "permrole_not_set": "Berechtigungsrolle ist nicht gesetzt.",
    "permrole_reset": "Berechtigungsrolle wurde zurückgesetzt.",
    "permrole_changed": "Benutzer benötigen nun die Rolle {0} um Berechtigungen zu bearbeiten.",
    "perm_out_of_range": "Keine Berechtigungen in diesem Index gefunden.",
    "removed": "Entfernen der Berechtigungen #{0} - {1}",
    "rx_disable": "Deaktivieren des Benutzen von {0} {1} für die Rolle {2}.",
    "rx_enable": "Aktivieren des Benutzers von {0} {1} für die Rolle {2}.",
    "sec": "Sek.",
    "sx_disable": "Deaktivieren des Benutzers von {0} {1} für die Rolle {2}.",
    "sx_enable": "Aktivieren des Benutzen von {0} {1} auf diesem Server.",
    "uneditable": "Uneditierbar",
    "ux_disable": "Deaktivieren des Benutzen von {0} {1} für {2} Nutzer.",
    "ux_enable": "Aktivieren des Benutzen von {0} {1} für den Nutzer {2}.",
    "verbose_false": "Ich werde keine Berechtigungswarnungen mehr zeigen.",
    "verbose_true": "Ich werde nun Berechtigungswarnungen zeigen.",
    "word_filter_channel_off": "Wort Filterung wurde in diesem Kanal deaktiviert.",
    "word_filter_channel_on": "Wort Filterung wurde in diesem Kanal aktiviert.",
    "word_filter_server_off": "Wort Filterung wurde auf diesem Server deaktiviert.",
    "word_filter_server_on": "Wort Filterung wurde auf diesem Server aktiviert.",
    "abilities": "Fähigkeiten",
    "chapters": "Kapitel",
    "comic_number": "Comic #",
    "condition": "Bedingung",
    "cost": "Kosten",
    "date": "Datum",
    "word": "Wort",
    "definition": "Erklärung",
    "episodes": "Folgen",
    "example": "Beispiel",
    "genres": "Genre",
    "authors": "Autoren",
    "height_weight": "Höhe/Größe",
    "height_weight_val": "{0}m/{1}kg",
    "humidity": "Luftfeuchtigkeit",
    "image_search_for": "Bildsuche für:",
    "latlong": "Breitengrad/Längengrad",
    "location": "Standort",
    "timezone": "Zeitzone",
    "min_max": "Min/Max",
    "original_url": "Originaler Link",
    "pokemon_ability_none": "Keine Fähigkeit gefunden.",
    "pokemon_none": "Kein Pokemon gefunden.",
    "rating": "Bewertung",
    "score": "Punkte:",
    "search_for": "Suche nach:",
    "short_url": "Gekürzte Url",
    "status": "Status",
    "sunrise": "Sonnenaufgang",
    "sunset": "Sonnenuntergang",
    "temperature": "Temperatur",
    "types": "Typen",
    "url": "Url",
    "wind_speed": "Windgeschwindigkeit",
    "author": "Author",
    "botid": "Bot ID",
    "channelid": "{0} von diesem Kanal ist {1}",
    "channel_topic": "Kanal Thema",
    "commands_ran": "Commands ausgeführt",
    "convert": "{0} {1} ist gleich {2} {3}",
    "convertlist": "Einheiten die konvertiert werden können",
    "convert_not_found": "Kann {0} nicht in {1} konvertieren: Einheiten nicht gefunden",
    "convert_type_error": "Kann {0} nicht in {1} konvertieren: Art der Einheiten nicht gleich",
    "created_at": "Erstellt am",
    "created_by": "Erstellt von {0}",
    "custom_emojis": "Benutzerdefinierte Emojis",
    "error": "Fehler",
    "features": "Funktionen",
    "index_out_of_range": "Index außerhalb des Bereichs.",
    "inrole_list": "Liste der Nutzer in der Rolle {0}",
    "joined_discord": "ist Discord beigetreten",
    "joined_server": "ist dem Server beigetreten",
    "listservers": "ID: {0}\nMitglieder: {1}\nOwner ID: {2}",
    "listservers_none": "Keine Server auf dieser Seite gefunden",
    "list_of_repeaters": "Liste der Wiederholungen",
    "members": "Mitglieder",
    "memory": "Erinnerung",
    "messages": "Nachrichten",
    "nickname": "Spitzname",
    "nobody_playing_game": "Niemand spielt",
    "no_topic_set": "Kein Thema eingetragen",
    "owner": "Besitzer",
    "owner_ids": "Besitzer IDs",
    "admin_ids": "Admin IDs",
    "region": "Region",
    "remind": "Ich werde {0} an {1} in {2} `({3:d.M.yyyy.} um {4:HH:mm})` daran erinnern",
    "remind_too_long": "Erinngerungs Zeit ist über dem Maximum",
    "repeaters_none": "Keine Wiederholungen laufen auf diesem Server.",
    "repeat_invoke_none": "Keine wiederholenden Nachrichten wurden auf diesem Server gefunden.",
    "result": "Ergebnis",
    "roles": "Rollen",
    "serverid": "{0} von diesem Server ist {1}",
    "server_info": "Server Informationen",
    "shard": "Shard",
    "showemojis_none": "Keine beseonderen Emojis gefunden.",
    "text_channels": "Textkanäle",
    "uptime": "Betriebszeit",
    "userid": "{0} des Nutzers {1} ist {2}",
    "roleid": "{0} der Rolle {1} ist {2}",
    "voice_channels": "Sprachkanäle",
    "current_poll_results": "Momentane Resultate der Umfrage",
    "poll_already_running": "Umfrage läuft bereits auf diesem Server",
    "poll_created": "📃 {0} hat eine Umfrage erstellt",
    "poll_result": "`{0}.` {1} mit {2} Stimmen.",
    "poll_voted": "{0} hat abgestimmt.",
    "poll_invalid_input": "Ungültige Eingabe. Du musst eine Frage und mindestens 2 Antworten angeben, alle getrennt mit einem `,`.",
    "x_votes_cast": "{0} totale Stimmen vergeben.",
    "pick_pl": "Schreibe {0} um sie aufzunehmen",
    "pick_sn": "Schreibe {0} up es aufzuheben",
    "sql_confirm_exec": "Bestätige die Ausführung vom folgenden SQL Befehl",
    "no_vcroles": "Es gibt keine Sprachkanal-Rollen",
    "user_muted_time": "{0} wurde von Text und Sprach Kanälen für {1} Minuten **stummgeschaltet**.",
    "vcrole_added": "Benutzer, welche dem Sprach Kanal {0} beitreten werden die Rolle {1} kriegen.",
    "vcrole_removed": "Benutzer, welche dem Sprach Kanal {0} beitreten werden keine Rolle mehr kriegen.",
    "vc_role_list": "Sprachkanal-Rollen",
    "option_disabled": "{0} Option ist nun deaktiviert für Ausdrücke mit id {1}",
    "option_enabled": "{0} Option ist jetzt aktiviert für den Ausdruck mit der ID {1}. ",
    "channel": "Kanal",
    "command_text": "Befehl Text",
    "moderator": "Moderator",
    "reason": "Grund",
    "scadd": "Neuer Startbefehl hinzugefügt.",
    "scrm": "Startbefehl wurde erfolgreich entfernt.",
    "scrm_fail": "Startbefehl nicht gefunden.",
    "server": "Server",
    "startcmdlist_none": "Keine Startbefehle auf dieser Seite.",
    "startcmds_cleared": "Alle Startbefehle wurden entfernt.",
    "unbanned_user": "Nutzer {0} wurde entbannt.",
    "user_not_found": "Nutzer nicht gefunden.",
    "user_warned": "Benutzer {0} wurde verwarnt.",
    "user_warned_and_punished": "Benutzer {0} wurde verwarnt",
    "warned_on": "Gewarnt auf {0} Server",
    "warned_on_by": "Am {0} um {1} von {1}",
    "warnings_cleared": "Alle Warnungen für {0} wurden entfernt.",
    "warning_clear_fail": "Warnung wurde nicht gelöscht. Entweder gibt es die Warnung mit diesem Index nicht, oder sie wurde bereits gelöscht.",
    "warning_cleared": "Warnung {0} wurde für {1} entfernt.",
    "warnings_none": "Keine Warnungen auf dieser Seite.",
    "warnlog_for": "Warnungs-log für {0}",
    "warnpl_none": "Keine Bestrafungen definiert.",
    "warn_cleared_by": "Gelöscht von {0}",
    "warn_punish_list": "Bestrafungsliste",
    "warn_punish_rem": "{0} Warnungen zu haben wird keine Bestrafung mehr nach sich ziehen.",
    "warn_punish_set": "Ich werde {0} Bestrafungen ausführen an Nutzern mit {1} Warnungen",
    "cant_apply_punishment": "Ich kann keine Bestrafung ausführen. Fehlende Berechtigungen.",
    "shop": "Shop",
    "shop_item_add": "Shop Gegenstand hinzugefügt",
    "shop_none": "Keine Shop Gegenstände auf dieser Seite gefunden.",
    "shop_role": "Du wirst die Rolle {0} kriegen.",
    "type": "Typ",
    "gvc_disabled": "Das Spiel Sprachkanal Feature wurde auf diesem Server deaktiviert",
    "gvc_enabled": "{0} ist jetzt ein Spiel Sprachkanal.",
    "not_in_voice": "Du bist nicht in einem Sprachkanal auf diesem Server.",
    "item": "Gegenstand",
    "out_of_stock": "Nicht auf Lager.",
    "random_unique_item": "Zufälliger einzigartiger Gegenstand",
    "shop_buy_error": "Fehler beim DMing des Gegenstandes. Dein Kauf wurde zurückerstattet.",
    "shop_item_not_found": "Kein Gegenstand in diesem Index gefunden.",
    "shop_item_purchase": "Kauf des Gegenstands erfolgreich.",
    "shop_item_rm": "Shop Gegenstand entfernt",
    "shop_item_wrong_type": "Dieser Geschäfts Eintrag unterstützt nicht das Hinzufügen von Gegenständen.",
    "shop_list_item_added": "Gegenstand erfolgreich hinzugefügt.",
    "shop_list_item_not_unique": "Dieser Gegenstand wurde schon hinzugefügt.",
    "shop_purchase": "Gekauft auf dem Server {0}",
    "shop_role_not_found": "Rolle die verkauft wird existiert nicht mehr.",
    "role_not_found": "Rolle nicht gefunden.",
    "shop_role_purchase": "Du hast erfolgreich die Rolle {0} gekauft.",
    "shop_role_purchase_error": "Fehler beim Zuweisen der Rolle. Dein Kauf wurde zurückerstattet.",
    "unique_items_left": "{0} einzigartige Gegenstände sind übrig.",
    "blocked_commands": "Blockierte Befehle",
    "blocked_modules": "Blockierte Module",
    "gcmd_add": "Befehl {0} wurde auf allen Servern deaktiviert.",
    "gcmd_remove": "Befehl {0} wurde auf allen Servern aktiviert.",
    "gmod_add": "Modul {0} wurde auf allen Server deaktiviert.",
    "gmod_remove": "Modul {0} wurde auf allen Servern aktiviert.",
    "lgp_none": "Keine geblockten Befehle oder Module.",
    "cant_read_or_send": "Du kannst keine Nachrichten i",
    "prefix_current": "Prefix auf diesem Server ist {0}",
    "defprefix_current": "Standard Prefix des Bots ist {0}",
    "timezone_guild": "Zeitzone für dieser Server ist `{0}`",
    "timezone_not_found": "Zeitzone nicht gefunden. Benutze den \"Zeitzonen\" Command um eine Liste der vorhandenen Zeitzonen zu sehen.",
    "timezones_available": "Verfügbare Zeitzonen.",
    "not_found": "Nicht gefunden.",
    "verbose_errors_enabled": "Unbehandelte Befehl Fehler werden von nun an im Chat angezeigt.",
    "verbose_errors_disabled": "Unbehandelte Befehl Fehler werden nicht mehr im Chat angezeigt.",
    "perms_reset": "Berechtigungen für diesen Server wurden zurückgesetzt.",
    "perm_prevent": "Berechtigung Nummer #{0} {1} verhindert diese Aktion.",
    "global_perms_reset": "Globale Berechtigungen wurden zurückgesetzt.",
    "module": "Modul: {0}",
    "hangman_stopped": "Galgenmännchen Spiel gestoppt",
    "queue_shuffled": "Musik Warteschlange wurde gemischt",
    "warnings_list": "Liste aller gewarnten Nutzer auf diesem Server",
    "waifu_gift": "{0} and {1} geschenkt",
    "waifu_gift_shop": "Waifu Geschenk Shop",
    "gifts": "Geschenke",
    "connect4_created": "Vier Gewinnt Spiel wurde erstellt. Warte auf einen Spieler der beitritt.",
    "connect4_created_bet": "Vier Gewinnt Spiel wurde erstellt und es wurden {0} gewettet. Warte auf einen Spieler der beitritt.",
    "connect4_player_to_move": "Spieler am Zug: {0}",
    "connect4_failed_to_start": "Vier Gewinnt Spiel konnte nicht gestartet werden, da keiner beigetreten ist.",
    "connect4_draw": "Vier Gewinnt Spiel endete in einem Unentschieden.",
    "connect4_won": "{0} hat das Vier Gewinnt Spiel gegen {1} gewonnen.",
    "nunchi_joined": "Du bist dem Nunchi Spiel beigetreten. {0} sind bis jetzt beigetreten.",
    "nunchi_ended": "Das Nunchi Spiel wurde beendet. {0} hat gewonnen.",
    "nunchi_ended_no_winner": "Das Nunchi Spiel wurde ohne einen Gewinner beendet.",
    "nunchi_round_ended": "Nunchi Runde wurde beendet. {0} ist aus dem Spiel.",
    "nunchi_round_ended_boot": "Nunchi Runde wurde beendet da ein Nutzer einen Time-out hat. Diese Nutzer sind noch im Spiel: {0}",
    "nunchi_round_started": "Ninchi Runde hat mit {0} Benutzern gestartet. Fang an zu Zählen ab der Nummer {1}.",
    "nunchi_next_number": "Nummer registriert. Die letzte Nummer war {0}.",
    "nunchi_failed_to_start": "Das Nunchi Spiel konnte nicht gestartet werden, da es nicht genug Teilnehmer gibt. ",
    "nunchi_created": "Nunchi Spiel wurde gestartet. Es wird darauf gewartet das Nutzer beitreten.",
    "stream_role_enabled": "Wenn ein Nutzer der Rolle {0} anfängt zu Streamen, werde ich ihm die Rolle {1} geben.",
    "stream_role_disabled": "Stream Rollen Funktionen wurde deaktiviert.",
    "stream_role_kw_set": "Streamer benötigen das Schlüsselwort {0} um die Streamer Rolle zu erhalten.",
    "stream_role_kw_reset": "Das Schlüsselwort wurde zurückgesetzt.",
    "stream_role_bl_add": "Benutzer {0} wird niemals eine Stream Rolle erhalten.",
    "stream_role_bl_add_fail": "Der Benutzer {0} ist bereits geblacklisted.",
    "stream_role_bl_rem": "Der Benutzer {0} ist nun nichtmehr geblacklisted.",
    "stream_role_bl_rem_fail": "Der Benutzer {0} ist nicht geblacklisted.",
    "stream_role_wl_add": "Der Benutzer {0} wird die Stream Rolle erhalten, selbst wenn dieser nicht das Schlüsselwort im Stream Titel hat.",
    "stream_role_wl_add_fail": "Der Benutzer {0} ist bereits gewhitelisted.",
    "stream_role_wl_rem": "Der Benutzer {0} ist nun nicht mehr gewhitelisted. ",
    "stream_role_wl_rem_fail": "Der Nutzer {0} ist nicht auf der Whitelist.",
    "xp_role_reward_add_role": "Benutzer die das Level {0} erreichen werden die Rolle {1} erhalten.",
    "xp_role_reward_remove_role": "Benutzer die das Level {0} erreichen werden die {1} Rolle verlieren.",
    "cur_reward_cleared": "Das Erreichen des Levels {0} wird nicht mehr mit {1} belohnt.",
    "cur_reward_added": "Benutzer die das Level {0} erreichen werden {1} erhalten. ",
    "level_up_rewards": "Level Up Belohnungen",
    "xp_receive_role": "Erhalte die {0} Rolle.",
    "xp_lose_role": "Verliere die {0} Rolle",
    "club_create_error": "Die Erstellung des Clubs ist fehlgeschlagen. Stelle sicher das du über Level 5 bist und nicht bereits Mitglied eines Clubs bist.",
    "club_created": "Club {0} wurde erfolgreich erstellt!",
    "club_not_exists": "Der Club existiert nicht.",
    "club_applied": "Du hast dich für eine Mitgliedschaft im Club {0} beworben.",
    "club_apply_error": "Fehler beim Bewerben. Du bist entweder bereits Mitglied eines Clubs, oder du hast die Level Voraussetzung nicht erreicht, oder wurdest von diesem Club gebannt.",
    "club_accepted": "Der Benutzer {0} wurde in den Club aufgenommen.",
    "club_accept_error": "Benutzer wurde nicht gefunden.",
    "club_left": "Du hast den Club verlassen.",
    "club_not_in_club": "Du bist nicht in dem Club, oder du versuchst einen Club zu verlassen dessen Besitzer du bist.",
    "club_user_kick": "Nutzer {0} wurde vom Club {1} gekickt.",
    "club_user_kick_fail": "Fehler beim kicken. Du bist entweder nicht der Besitzer des Clubs, oder der Nutzer ist nicht in deinem Club.",
    "club_user_banned": "Nutzer {0} wurde vom Club {1} gebannt.",
    "club_user_ban_fail": "Fehler beim Bannen. Du bist entweder nicht der Besitzer des Clubs, oder dieser Nutzer ist nicht in deinem Club, oder hat keine Bewerbung geschickt.",
    "club_user_unbanned": "Nutzer {0} wurde von deinem Club entbannt.",
    "club_user_unban_fail": "Fehler beim Bannen. Du bist entweder nicht der Besitzer des Clubs, oder dieser Nutzer ist nicht in deinem Club, oder hat keine Bewerbung geschickt.",
    "club_level_req_changed": "Die Level Anforderung des Clubs wurde geändert auf {0}.",
    "club_level_req_change_error": "Fehler beim Ändern der Level Anforderung.",
    "club_desc_updated": "Die Club Beschreibung wurde geändert zu {0}",
    "club_desc_update_failed": "Fehler beim Ändern der Club Beschreibung.",
    "club_disbanded": "Club {0} wurde aufgelöst.",
    "club_disband_error": "Fehler. Du bist entweder nicht im Club, oder bist nicht der Besitzer des Clubs.",
    "club_icon_error": "Dies ist keine gültige Bild Url oder du bist nicht der Besitzer des Clubs.",
    "club_icon_set": "Neues Club Symbol wurde gesetzt.",
    "club_bans_for": "Gebannte des Clubs {0}",
    "club_apps_for": "Bewerbungen für den Club {0}",
    "club_leaderboard": "Club Rangliste - Seite {0}",
    "self_assign_are_exclusive": "Du kannst nur eine Rolle pro Gruppe auswählen.",
    "self_assign_are_not_exclusive": "Du kannst eine beliebige Anzahl an Rollen von jeder Gruppe auswählen.",
    "new_reaction_event": "Füge die {0} Reaktion zu dieser Nachricht hinzu um {1} zu erhalten. {2} sind noch übrig.",
    "new_gamestatus_event": "Tippe den geheimen Code in einen beliebigen Kanal ein um {1} zu erhalten. {2} sind noch übrig.",
    "event_duration_footer": "Die Veranstaltung enden in {0}st {1}m",
    "start_event_fail": "Die Veranstaltung konnte nicht gestartet werden. Eine andere Veranstaltung ist bereits am laufen, oder es gab einen Fehler beim starten der Veranstaltung.",
    "event_title": "Ein Event des Types {0} wurde gestartet!",
    "poll_closed": "Umfrage geschlossen!",
    "club_not_exists_owner": "Du bist nicht der Besitzer oder Admin des Clubs.",
    "club_admin_add": "{0} ist nun Club Administrator.",
    "club_admin_remove": "{0} ist nun nicht mehr Club Administrator.",
    "club_admin_error": "Fehler. Du bist nicht der Besitzer des Clubs, oder dieser Nutzer ist nicht im Club.",
    "feed_added": "Feed wurde hinzugefügt.",
    "feed_not_valid": "Ungültiger Link, oder du bist bereits diesem Feed auf diesem Server am folgen, oder du hast die maximale Anzahl an Feeds deren gefolgt werden kann bereits erreicht.",
    "feed_out_of_range": "Kennziffer außerhalb des gültigen Bereichs.",
    "feed_removed": "Feed wurde entfernt.",
    "feed_no_feed": "Du bist auf diesem Server keinen Feeds am folgen.",
    "timely_none": "Der Bot Owner hat keinen timely reward spezifiziert.",
    "timely_already_claimed": "Du hast bereits deinen timely reward eingefordert. Du kannst dies wieder tun in {0}.",
    "timely": "Du hast deine {0} eingefordert. Du kannst dieser erneut in {1} Stunden einfordern.",
    "timely_set": "Nutzer werden {0} alle {1} Stunden einfordern können.",
    "timely_set_none": "Nutzer werden nicht die Möglichkeit haben die timely Währung einfordern zu können.",
    "timely_reset": "Alle Nutzer werden wieder die Möglichkeit haben die timely Währung einzufordern.",
    "market_cap": "Markt Obergrenze",
    "volume_24h": "Volumen (24h)",
    "change_7d_24h": "Ändere (7d/24h)",
    "crypto_not_found": "Kryptowährung mit dem Namen wurde nicht gefunden.",
    "did_you_mean": "Meintest du {0}?",
    "self_assign_level_req": "Selbst zuweisbare Rolle {0} benötigt mindestens server level {1].",
    "self_assign_not_level": "Diese Selbst zuweisbare Rolle benötigt mindestens server level {0}.",
    "invalid": "Ungültig / Konnte nicht gefunden werden ({0})",
    "mass_kill_in_progress": "Massen Bannen und Blacklisten von {0} Nutzern ist im Vorgang...",
    "mass_kill_completed": "Massen Bannen und Blacklisten von {0} Nutzern ist fertig.",
    "club_transfered": "Besitz des Clubs {0} wurde transferiert zu {1}",
    "club_transfer_failed": "Transfer fehlgeschlagen. Du musst Besitzer des Clubs sein. Das Ziel muss auch ein Mitglied des Clubs sein.",
    "reaction_roles_message": "**Rollen:** {0}\n**Inhalt:** {1}",
    "no_reaction_roles": "Reaktions-Rollen sind auf diesem Server aktiviert.",
    "reaction_role_removed": "Entfernen der ReactionRole Nachricht #{0}",
    "reaction_roles_full": "Du hast das Limit der ReactionRole Nachrichten erreicht. Du musst welche löschen.",
    "reminder_list": "Liste an Erinnerungen",
    "reminder_deleted": "Erinnerung #{0} wurde gelöscht.",
    "reminder_not_exist": "Eine Erinnerung auf dieser Kennziffer existiert nicht.",
    "reminders_none": "Keine Erinnerung auf dieser Seite.",
    "bj_created": "hat ein neues Blackjack Spiel in diesem Kanal gestartet.",
    "bj_joined": "ist dem Blackjack Spiel beigetreten.",
    "no_invites": "Keine Einladungen auf dieser Seite.",
    "invite_deleted": "Einladung {0} wurde gelöscht.",
    "invalid_emojis": "Alle Emojis die ausgewählt wurden sind ungültig.",
    "aliases_cleared": "Alle {0} Aliases auf diesem Server wurden entfernt.",
    "vcrole_not_found": "Dieser Sprachkanal hat keine Sprachkanal Rolle.",
    "attachments": "Anhänge",
    "avatar_changed": "Avatar wurde geändert",
    "banmsg_disabled": "Bannnachrichten sind abgeschaltet. Du kannst sie anschalten wenn du eine Bannnachricht als etwas anderes setzt als '-'",
    "banmsg_default": "Es wurde keine Bannnachricht gesetzt. Normales Verhalten wird verwendet.",
    "banned_pl": "gebannt",
    "bot_name": "Der Name des Bots wurde zu {0} geändert.",
    "bot_status": "Der Status des Bots wurde zu {0} geändert.",
    "ch_name_change": "Der Name des Channels wurde geändert.",
    "ch_old_name": "Alter Name",
    "ch_topic_change": "Kanal Thema geändert",
    "content": "Inhalt",
    "server_delmsgoncmd": "Server Einstellung",
    "channel_delmsgoncmd": "Kanal spezifische Einstellungen",
    "dm_from": "DM von",
    "images_loading": "Bilder werden neugelanden innerhalb weniger Sekunden.",
    "insuf_perms_i": "Ich habe unzureichende Berechtigungen.",
    "insuf_perms_u": "Du hast unzureichende Berechtigungen.",
    "lang_set_fail": "Setzen der Sprache fehlgeschlagen. Schaue die Hilfe dieses Befehls nochmal an.",
    "lang_set_show": "Die Sprache des Server's ist nun {0} - {1}",
    "log": "Protokolliert Ereignis {0} in diesem Channel.",
    "log_all": "Alle Events werden nun in diesem Channel geloggt.",
    "log_disabled": "Protokollierung ausgeschaltet.",
    "log_events": "Protokoll Ereignisse die du Abonnieren kannst:",
    "log_stop": "Protokollierung des {0} Ereignisses wurde gestoppt.",
    "msg_not_found": "Nachricht wurde nicht gefunden.",
    "time_too_long": "Die spezifizierte Zeit ist zu lang.",
    "log_vc_moved": "{0} wurde vom {1} voice channel zu {2} verschoben.",
    "msg_del": "Nachricht in {0} wurde gelöscht.",
    "msg_update": "Nachricht in {0} wurde aktualisiert.",
    "muted_pl": "Stummgeschaltet",
    "muted_sn": "Stummgeschaltet",
    "mute_role": "Aktuelle Stummschaltungsrolle ist {0}",
    "mute_perms": "Du kannst einen Nutzer mit einer höheren Rolle als deiner höchsten Rolle in der Rollen Hierarchie nicht Stummschalten.",
    "new_msg": "Neue Nachricht",
    "new_nick": "Neuer Nickname",
    "new_topic": "Neues Thema",
    "nick_change": "Nickname wurde geändert",
    "no_shard_id": "Keine Shard mit dieser ID gefunden.",
    "nsfw_set_true": "NSFW wurde in diesem Kanal aktiviert.",
    "nsfw_set_false": "NSFW wurde in diesem Kanal deaktiviert.",
    "old_msg": "Alte Nachricht",
    "old_nick": "Alter Nichname",
    "old_topic": "Altes Thema",
    "prot_cant_use_time": "Du kannst keine Dauer für Bestrafungs-Aktionen festlegen.",
    "rar_err": "Entfernen der Rollen fehlgeschlagen. Ich habe keine ausreichende Berechtigungen.",
    "rc_perms": "Ein Fehler ist aufgetreten durch eine ungültige Farbe oder unzureichenden Berechtigungen.",
    "remrole": "Erfolgreich entfernte Rolle {0} von Nutzer {1}",
    "remrole_err": "Entfernen der Rolle fehlgeschlagen. Ich habe keine ausreichende Berechtigungen.",
    "renrole_err": "Umbenennen der Rolle fehlgeschlagen. Ich habe keine ausreichende Berechtigungen.",
    "renrole_perms": "Du kannst keine Rollen bearbeiten, die höher als deine oder meine höchste Rolle liegen.",
    "ropl_added": "Hinzugefügt.",
    "ropl_disabled": "Rotierender Spielstatus deaktiviert.",
    "ropl_enabled": "Rotierender Spielstatus aktiviert.",
    "ropl_list": "Hier ist eine Liste der rotierenden Status: {0}",
    "ropl_not_set": "Keine rotierenden Spielstatus festgelegt.",
    "setrole_err": "Hinzufügen der Rolle fehlgeschlagen. Ich habe keine ausreichende Berechtigungen.",
    "set_avatar": "Neuer Avatar festgelegt!",
    "set_game": "Neues Spiel festgelegt!",
    "set_stream": "Neuer Stream festgelegt!",
    "set_topic": "Neue Kanalbeschreibung festgelegt.",
    "shard_reconnecting": "Shard {0} verbindet wieder",
    "soft_banned_pl": "soft-banned",
    "text_chan_created": "Text channel erstellt",
    "text_chan_destroyed": "Text channel gelöscht",
    "duration": "Dauer",
    "unmuted_sn": "Entstummt",
    "unable_to_dm_user": "Direktnachricht an den Benutzer fehlgeschlagen.",
    "username_changed": "Nutzername geändert",
    "user_banned": "Nutzer gebannt",
    "user_joined": "Nutzer beigetreten",
    "user_left": "Nutzer gegangen",
    "user_role_add": "Nutzer wurde Rolle hinzugefügt",
    "user_role_rem": "Nutzer wurde Rolle entfernt",
    "user_status_change": "{0} ist nun {1}",
    "user_vjoined": "{0} ist Sprachkanal {1} beigetreten.",
    "user_vleft": "{0} hat Sprachkanal {1} verlassen.",
    "user_vmoved": "{0} wurde von Sprachkanal {1} zu {2} verschoben.",
    "voice_chan_created": "Sprachkanal erstellt",
    "voice_chan_destroyed": "Sprachkanal zerstört",
    "xmuted_text": "Nutzer {0} vom Textkanal von {1}",
    "xmuted_text_and_voice": "Nutzer {0} vom Text- und Sprachkanal von {1}",
    "xmuted_voice": "Benutzer {0} von dem Sprachkanal {1}",
    "user_unbanned": "Nutzer entbannt",
    "presence_updates": "Gegenwärtige Updates",
    "awarded": "{1} wurde mit {0} belohnt",
    "deck_reshuffled": "Deck neu gemischt.",
    "flipped": "warf {0}.",
    "flip_invalid": "Ungültige Nummer angegeben. Du kannst 1 bis {0} Münzen werfen.",
    "cards_left": "{0} Karten im Deck übrig.",
    "gifted": "Hat {0} and {1} verschenkt",
    "heads": "Kopf",
    "no_more_cards": "Keine Karten mehr im Deck.",
    "tails": "Zahl",
    "take": "Erfolgreich {0} von {1} genommen",
    "take_fail": "konnte nicht {0} von {1} nehmen, weil der Nutzer nicht so viel {2} hat!",
    "commandlist_regen": "Befehlsliste regeneriert.",
    "desc": "Beschreibung",
    "cant_dm": "Ich kann keine Nachrichten an dich senden. Stelle sicher, dass deine Direktnachrichten öffentlich sind. Gehe zu **Benutzereinstellungen (Zahnrad) ->  Privatsphäre & Sicherheit -> Direktnachrichten von Servermitgliedern erlauben**",
    "donate": "Du kannst das WizBot Projekt unterstützen auf\nPatreon <{0}> oder\nPaypal <{1}>\nVergiss nicht deinen Benutzernamen oder deine ID in die Nachricht zu schreiben.\n\n**Vielen Dank** ♥️",
    "guide": "**Liste der Kommandos**: <{0}>\n**Hosting Leitfäden und Dokumentation können hier gefunden werden**: <{1}>",
    "list_of_modules": "Liste der Module",
    "autohentai_started": "Autohentai gestartet. Wiederhole alle {0}s mit einen der folgenden Stichwörter: {1}",
    "tag": "Stichwort",
    "animal_race_full": "Rennen ist voll! Startet sofort.",
    "animal_race_join_bet": "{0} ist als ein {1} beigetreten und hat {2} gewettet!",
    "animal_race_starting_with_x": "Startet mit {0} Teilnehmern.",
    "animal_race_won_money": "{0} hat als {1} das Rennen und {2} gewonnen!",
    "race_not_exist": "Auf diesem Server existiert kein Rennen",
    "second_larger_than_first": "Zweite Zahl muss größer sein als die erste.",
    "waifu_affinity_already": "Deine Affinität ist bereits auf eine Waifu festgelegt oder du versuchst deine Affinität zu entfernen, ohne welche zu haben.",
    "waifu_affinity_changed": "hat seine/ihre Affinität von {0} auf {1} geändert.\n\n*Das ist moralisch fragwürdig.* 🤔",
    "waifu_affinity_cooldown": "Du musst {0} Stunden und {1} Minuten warten, um deine Affinität wieder zu ändern.",
    "waifu_affinity_reset": "Deine Affinität wurde zurückgesetzt. Du hast keine Person mehr die du magst.",
    "waifu_affinity_set": "möchte {0}'s Waifu sein. Aww <3",
    "waifu_isnt_cheap": "Keine Waifu ist so günstig. Du musst mindestens {0} bezahlen um eine Waifu zu bekommen, selbst wenn ihr eigentlicher Wert niedriger ist.",
    "waifu_reset_price": "Preis: {0}",
    "animal_race_already_started": "Tier Rennen ist bereits am laufen.",
    "failed_loading_question": "Laden einer Frage fehlgeschlagen.",
    "trivia_win": "{0} hat richtig geraten und hat das Spiel GEWONNEN! Die Antwort lautete: {1}",
    "trivia_quit": "Du kannst das Quiz mit {0} beenden",
    "dir_queue_complete": "Verzeichnis Warteschlange komplett.",
    "fp_disabled": "Fair play ausgeschaltet.",
    "fp_enabled": "Fair play eingeschaltet.",
    "from_position": "Von Position",
    "now_playing": "Spielt jetzt",
    "playlists": "`#{0}` - **{1}** von *{2}* ({3} Lieder)",
    "playlists_page": "Seite {0} der gespeicherten Playlists",
    "playlist_deleted": "Playlist gelöscht.",
    "playlist_delete_fail": "Löschen der Playlist fehlgeschlagen. Entweder existiert sie nicht, oder du bist nicht ihr Autor.",
    "playlist_id_not_found": "Eine Playlist mit dieser ID existiert nicht.",
    "playlist_saved": "Playlist gespeichert",
    "queue": "Warteschlange",
    "queue_cleared": "Musik Warteschlange wurde gelöscht.",
    "set_music_channel": "Ich werde jetzt spielende, abgeschlossene, pausierte und entfernte Lieder in diesem Kanal wiedergeben.",
    "unset_music_channel": "Ich werde jetzt spielende, abgeschlossene, pausierte und entfernte Lieder von dem neu erstellten Musikplayer in dem Kanal, in dem die Musik gestartet wurde, wiedergeben.",
    "to_position": "Zu Position",
    "volume_input_invalid": "Lautstärke muss zwischen 0 und 100 liegen",
    "link_filter_channel_off": "Link-Filterung wurde in diesem Channel ausgeschaltet.",
    "link_filter_channel_on": "Link-Filterung wurde in diesem Channel eingeschaltet.",
    "link_filter_server_off": "Link-Filterung wurde auf diesem Server ausgeschaltet.",
    "link_filter_server_on": "Link-Filterung wurde auf diesem Server eingeschaltet.",
    "avatar_none": "Nutzer {0} hat keinen Avatar gesetzt.",
    "anime_no_fav": "Noch keinen Lieblings Anime",
    "atl_ad_started": "Automatische Übersetzung der Nachrichten in diesem Channel wurde gestartet. Nutzer Nachrichten werden automatisch gelöscht.",
    "atl_removed": "Deine automatische Übersetzungssprache wurde entfernt.",
    "atl_set": "Deine Auto-Übersetzungs Sprache ist nun {0}>{1}",
    "atl_started": "Automatische Übersetzung der Nachrichten in diesem Channel wurde gestartet.",
    "atl_stopped": "Automatische Übersetzung der Nachrichten in diesem Channel wurde gestoppt.",
    "bad_input_format": "Falsches Eingabeformat oder etwas ist schiefgelaufen.",
    "card_not_found": "Diese Karte konnte nicht gefunden werden.",
    "catfact": "Fakt",
    "comic_not_found": "Dieser Comic konnte nicht gefunden werden.",
    "completed": "Fertiggestellt",
    "dropped": "Fallen gelassen",
    "error_occured": "Ein Fehler ist aufgetreten.",
    "failed_finding_anime": "Dieser Animu konnte nicht gefunden werden.",
    "failed_finding_manga": "Die Mango konnte nicht gefunden werden.",
    "imdb_fail": "Der Film konnte nicht gefunden werden.",
    "invalid_lang": "Ungültige Ausgangs- oder Zielsprache.",
    "jokes_not_loaded": "Witze wurden nicht geladen.",
    "list_of_place_tags": "Liste der {0} Platzkarten",
    "city_not_found": "Stadt wurde nicht gefunden.",
    "magicitems_not_loaded": "Magische Gegenstände nicht geladen.",
    "mal_profile": "{0}'s MAL Profil",
    "mashape_api_missing": "Bot Besitzer hat MashapeApiKey nicht bestimmt. Du kannst diese Funktion nicht nutzen.",
    "no_channel_found": "Keinen Channel gefunden.",
    "on_hold": "In der Warteschleife",
    "osu_api_key": "Ein osu! API Schlüssel wird benötigt.",
    "osu_failed": "Abrufen der osu! Signatur fehlgeschlagen.",
    "osu_user_not_found": "Nutzer wurde nicht gefunden.",
    "plan_to_watch": "Planen zu gucken",
    "something_went_wrong": "Etwas ist schief gelaufen.",
    "specify_search_params": "Bitte spezifiziere die Such-Parameter.",
    "store_url": "Shop url",
    "streamer_offline": "Streamer {0} ist offline.",
    "streamer_online": "Streamer {0} ist online mit {1} Zuschauern.",
    "streams_follow_title": "Streams denen du folgst",
    "streams_none": "Du bist folgst keinen Streams auf diesem Server.",
    "stream_no": "Kein solch Stream.",
    "stream_off_enabled": "Stream Benachrichtigungen werden jetzt gezeigt, wenn ein Stream offline geht.",
    "stream_off_disabled": "Stream Benachrichtigungen werden nicht mehr gezeigt, wenn ein Stream offline geht.",
    "stream_not_added": "Stream wurde nicht hinzugefügt. Entweder existiert der Stream nicht, die Plattform wird nicht unterstützt, oder du hast das Maximum der erlaubten Streams erreicht.",
    "stream_message_reset": "Ankündigungsnachricht für den Stream {0} wurde zurückgesetzt.",
    "stream_message_set": "Ankündigungsnachricht wenn der Stream {0} online geht wurde festgelegt.",
    "stream_not_following": "Du folgst diesem Stream nicht auf diesem Server.",
    "stream_removed": "{0}'s Stream ({1}) wurde von den Benachrichtigungen entfernt.",
    "stream_tracked": "Ich werde diesen Kanal benachrichtigen, sobald dieser Stream online geht.",
    "title": "Titel:",
    "top_3_fav_anime": "Top 3 Lieblings Anime:",
    "translation": "Übersetzung:",
    "ud_error": "Definition des Begriffs wurde nicht gefunden.",
    "viewers": "Zuschauer",
    "watching": "Am gucken",
    "wikia_error": "Finden des Begriffes im angegebenen Wikia fehlgeschlagen.",
    "wikia_input_error": "Bitte gebe ein Ziel Wikia ein, gefolgt von einer Suchanfrage.",
    "wiki_page_not_found": "Seite wurde nicht gefunden.",
    "activity_line": "`{0}.` {1} [{2:F2}/s] - {3} gesamt",
    "activity_page": "Aktivitäts Seite #{0}",
    "activity_users_total": "Insgesamt {0} Nutzer.",
    "calcops": "Liste der Funktionen im {0}calc Befehl",
    "repeater_created": "Repeater erstellt",
    "repeater_removed": "Repeater #{0} entfernt",
    "no_roles_on_page": "Keine Rollen auf dieser Seite.",
    "no_shards_on_page": "Keine Shards auf dieser Seite.",
    "presence": "Präsenz",
    "presence_txt": "{0} Server\n{1} Textkanäle\n{2} Sprachkanäle",
    "quotes_deleted": "Alle Zitate mit dem Stichwort {0} wurden gelöscht.",
    "quotes_page": "Seite {0} der Zitate",
    "quotes_page_none": "Keine Zitate auf dieser Seite gefunden.",
    "quotes_remove_none": "Keine Zitate gefunden die du entfernen kannst.",
    "quote_added_new": "Zitat #{0} wurde hinzugefügt.",
    "repeater_redundant_no": "Repeater **#{0}** wird keine überflüssigen Nachrichten mehr schicken.",
    "repeater_redundant_yes": "Repeater **#{0}** wird von jetzt an überflüssige Nachrichten schicken.",
    "roles_all_page": "Seite #{0} von allen Rollen auf diesem Server:",
    "roles_page": "Seite #{0} der Rollen für {1}",
    "showemojis": "**Name:** {0} **Link:** {1}",
    "users": "Nutzer",
    "no_user_on_this_page": "Keine Nutzer auf dieser Seite.",
    "aliases_none": "Kein Alias gefunden",
    "alias_added": "{0} ist nun ein Alias für {1}.",
    "alias_list": "Liste der Aliasse",
    "alias_removed": "Auslöser {0} hat kein Alias mehr.",
    "alias_remove_fail": "Auslöser {0} hatte kein Alias.",
    "punishment_unsupported": "Du kannst {0} Bestrafung mit dieser Funktion nicht benutzen.",
    "interval": "Interval",
    "kicked_pl": "Gekickt",
    "autocmd_add": "Der Befehl {0} wird alle {1}s in diesem Kanal ausgeführt.",
    "autocmdlist_none": "Keine automatischen Befehle auf dieser Seite.",
    "warn_expire_set_delete": "Warnungen werden nach {0} Tagen gelöscht.",
    "warn_expire_set_clear": "Warnungen werden nach {0} Tagen entfernt.",
    "warn_expire_reset": "Warnungen werden nicht mehr ablaufen.",
    "warn_punish_set_timed": "Ich werde {0} Strafen für {2} an Nutzern mit {1} Warnungen anwenden.",
    "time_new": "Zeit",
    "timezone_db_api_key": "Du musst deinen TimezoneDB API Schlüssel aktivieren. Dies kannst du tun, indem du auf den Link drückst, der in der E-Mail mit deinem API Schlüssel ist.",
    "rolehoist_enabled": "Rolle {0} wird nun separat von online Nutzern angezeigt.",
    "rolehoist_disabled": "Rollte {0} wird nicht mehr separat von online Nutzern angezeigt.",
    "shop_role_already_bought": "Du hast diese Rolle bereits gekauft.",
    "quotes_notfound": "Keine Zitate gefunden zu der angegebenen Zitat ID.",
    "prefix_new": "Prefix auf diesem Server wurde von {0} zu {1} geändert",
    "defprefix_new": "Standard Bot Prefix wurde von {0} zu {1} geändert",
    "bot_nick": "Der Nickname des Bots wurde zu {0} geändert",
    "user_nick": "Der Nickname des Nutzers {0} wurde zu {1} geändert",
    "perm_override": "Nutzer benötigen die Berechtigung {0}, um den {1} Befehl auszuführen.",
    "define_unknown": "Die Definition des Begriffs wurde nicht gefunden.",
    "queue_stopped": "Player ist pausiert. Benutze den {0} Befehl um die Wiedergabe zu starten.",
    "nunchi_started": "Nunchi Spiel gestartet mit {0} Teilnehmern.",
    "bot_strings_reloaded": "Bot Strings wurden neu geladen.",
    "xpn_setting_global": "Globale Level-Up Benachrichtigungen",
    "xpn_setting_server": "Server Level-Up Benachrichtigungen",
    "xpn_notif_channel": "In dem Channel in dem du die letzte Nachricht geschickt hast.",
    "xpn_notif_dm": "In einem direkten Textkanal.",
    "xpn_notif_disabled": "Nirgends.",
    "excluded": "{0} wurde vom XP System auf diesem Server ausgeschlossen.",
    "not_excluded": "{0} ist nicht mehr länger vom XP System auf diesem Server ausgeschlossen.",
    "exclusion_list": "Ausschluss Liste",
    "server_is_excluded": "Dieser Server ist ausgeschlossen.",
    "server_is_not_excluded": "Dieser Server ist nicht ausgeschlossen.",
    "level_up_channel": "Herzlichen Glückwunsch {0}, du hast Level {1} erreicht!",
    "level_up_dm": "Herzlichen Glückwunsch {0}, du hast Level {1} auf dem Server {2} erreicht!",
    "level_up_global": "Herzlichen Glückwunsch {0}, du hast globales Level {1} erreicht!",
    "level_x": "Level {0}",
    "no_level_up_rewards": "Keine Level up Belohnung auf dieser Seite.",
    "server_leaderboard": "Server XP Rangliste",
    "global_leaderboard": "Globale XP Rangliste",
    "modified": "Server XP wurde von Nutzer {0} um {1} bearbeitet.",
    "template_reloaded": "Xp Vorlage wurde neu geladen.",
    "self_assign_group": "Gruppe {0}",
    "started": "Gestartet. Wiederhole alle {0}s.",
    "stopped": "Wiederholen gestoppt.",
    "restart_fail": "Du musst den RestartCommand in deinen creds.yml einrichten.",
    "restarting": "Am Neustarten.",
    "streaming": "Streamt",
    "rafflecur": "{0} Währungsverlosung",
    "rafflecur_joined": "Nutzer {0} ist der Verlosung beigetreten",
    "rafflecur_already_joined": "Du bist dieser Verlosung bereits beigetreten oder die Menge die du benutzt ist nicht gültig.",
    "rafflecur_ended": "{0} Verlosung beendet. {1} hat {2} gewonnen!",
    "autodc_enable": "Ich werde den Sprachkanal verlassen, sobald es keine Lieder mehr zu spielen gibt.",
    "autodc_disable": "Ich werde nicht mehr den Sprachkanal verlassen, sobald es keine Lieder mehr zu spielen gibt.",
    "failed_finding_novel": "Ich kann den Roman nicht finden. Vergewissere dich, ob du den korrekten vollen Titel geschrieben hast, und er auf novelupdates.com existiert.",
    "roll_duel_challenge": "{1} hat {2} zu einem Roll Duell herausgefordert",
    "roll_duel": "Roll Duell",
    "roll_duel_no_funds": "Entweder hast du oder dein Gegner nicht genügend Mittel.",
    "roll_duel_timeout": "Roll Duel Herausforderung wurde nicht akzeptiert.",
    "roll_duel_already_challenged": "Dieser Nutzer hat dich bereits zu einem roll Duel herausgefordert.",
    "account_not_found": "Dieser Account existiert nicht oder ist auf Privat geschaltet.",
    "ninja_not_found": "Eine Währung wurde unter diesem Namen nicht gefunden, oder ein ungültiger Klassenname wurde angegeben.",
    "leagues_not_found": "Daten konnten nicht von der Path of Exile API abgerufen werden.",
    "perm_override_page_none": "Keine Ausnahmen auf dieser Seite.",
    "perm_override_all": "Alle Ausnahmen für Discord Berechtigungen wurden entfernt.",
    "perm_override_all_confirm": "Bist du dir sicher, dass du **ALLE** Ausnahmen für Discord Berechtigungen auf diesem Server entfernen möchtest? Diese Aktion kann nicht rückgängig gemacht werden.",
    "perm_overrides": "Ausnahmen für Discord Berechtigungen",
    "perm_override_reset": "Ausnahmen für Discord Berechtigungen für diesen Befehl wurden entfernt.",
    "reset": "XP Reset",
    "reset_server_confirm": "Bist du sicher, dass du die XP von allen Nutzern auf diesem Server zurücksetzen möchtest?",
    "reset_user_confirm": "Bist du sicher, dass du die XP vom definierten Nutzer auf diesem Server zurücksetzen möchtest?",
    "reset_user": "Nutzer mit der ID {0} wurde die XP auf diesem Server zurückgesetzt.",
    "reset_server": "XP von allen Nutzern auf diesem Server wurde zurückgesetzt.",
    "economy_state": "Zustand der Wirtschaft",
    "currency_owned": "Gesamtwährung im Besitz der Nutzer",
    "currency_one_percent": "% der Währung im Besitz des Top 1%",
    "currency_planted": "Währung momentan platziert",
    "owned_waifus_total": "Gesamter Wert der besessenen Waifus",
    "bot_currency": "Währung im Besitz des Bots",
    "total": "Insgesamt",
    "group_name_added": "Gruppe #{0} hat nun den Namen: {1}",
    "group_name_removed": "Gruppe #{0} hat keinen Namen mehr.",
    "quote_id": "Zitat {0}",
    "aar_none": "Nutzer erhalten keine Rollen wenn sie diesem Server beitreten.",
    "aar_roles": "Die folgenden Rollen werden den Nutzern hinzugefügt wenn sie diesem Server beitreten: {0}",
    "aar_role_removed": "Die Nutzer erhalten die {0} Rolle nicht mehr wenn sie diesem Server beitreten.",
    "remove_roles_pl": "wurden seine Rollen entfernt",
    "role_too_high": "Du kannst diesen Befehl nicht mit Rollen welche über deiner höchsten Rolle stehen benutzen. Außer du bist der Serveradministrator.",
    "log_vc_joined": "{0} trat dem {1} Voice Channel bei",
    "log_vc_left": "{0} hat den Voice Channel {1} verlassen",
    "protection_not_running": "{0} Schutz ist nicht eingeschaltet.",
    "anti_alt_status": "Nutzer, die diesem Server beitreten, deren Account nicht älter als {0} ist, werden folgende Aktion erhalten: {1}\nSoweit bestraft: {2}",
    "mass_take": "Habe {0} von {1} Nutzern in {2} Rolle genommen.",
    "_8ball": "8ball",
    "repeating_none": "Player wird anhalten, sobald das Ende der Warteschlange erreicht ist.",
    "repeating_queue": "Player wird die Warteschlange wiederholen.",
    "current_music_quality": "Aktuelle Musikqualität: {0}",
    "music_quality_set": "Musikqualität wurde auf {0} gestellt. Du musst den Musikplayer zerstören und neu starten damit die Änderungen übernommen werden.",
    "blacklisted_users": "Nutzer auf der Schwarzen Liste",
    "blacklisted_channels": "Kanäle auf der Schwarzen Liste",
    "blacklisted_servers": "Server auf der Schwarzen Liste",
    "_class": "Klasse",
    "stream_not_following_any": "Du folgst keinen Streams.",
    "stream_message_set_all": "Alle {0} gefolgten Streams haben jetzt eine bestimmte Ankündigungsnachricht.",
    "repeater_exceed_limit": "Du kannst nicht mehr als {0} Repeater pro Server haben.",
    "repeater_remove_fail": "Entfernen des Repeaters in dem Register gescheitert. Entweder du hast ein ungültiges Register angegeben, oder der Repeater hat gerade etwas ausgeführt. In diesem Fall versuche es in ein paar Sekunden erneut.",
    "interval_colon": "Interval:",
    "executes_in_colon": "Wird ausgeführt in:",
    "message_colon": "Nachricht:",
    "no_redundant": "Werde keine mehrfachen Nachrichten senden.",
    "remind_invalid": "Kein gültiges Format für Erinnerungen. Erinnerungen müssen immer ein Ziel, Timer und einen Grund haben. Prüfe die Befehlsliste.",
    "user_voice_mute_time": "{0} wurde **sprach gestummt** für {1} Minuten.",
    "user_chat_mute_time": "{0} wurde **text gestummt** für {1} Minuten.",
    "acrm_fail": "Automatischer Befehl für das angegebene Register nicht gefunden.",
    "warns_dont_expire": "Warnung haben keinen Verfall eingestellt.",
    "warns_expire_in": "Warnungen verfallen in {0} Tagen.",
    "not_with_bot_in_voice": "Du bist nicht im selben Voice Channel wie der Bot.",
    "waifu_gift_not_exist": "Dieser Waifu Gegenstand existiert nicht",
    "fans": "Fans ({0})",
    "config_edit_fail": "Einstellen von {0} zu der Menge {1} gescheitert.",
    "config_not_found": "Konfiguration {0} nicht gefunden",
    "config_prop_not_found": "Eigentum {0} nicht gefunden mit {1} Konfiguration",
    "config_list": "Konfigurationsliste",
    "level_req": "Level Anforderung",
    "xprewsreset_confirm": "Bist du sicher, dass du ALLE XP Level-Up Belohnungen von diesem Server löschen möchtest? Diese Aktion kann nicht rückgängig gemacht werden.",
    "xp_role_reward_cleared": "Das erreichen von Level {0} wird nicht mehr mit einer Rolle belohnt.",
    "club_name_too_long": "Club Name ist zu lang.",
    "club_user_not_in_club": "{0} ist in keinem Club.",
    "reaction_cant_access": "Ich kann nicht auf die {0} Reaktion zugreifen. Du kannst nur Emojis von Servern benutzen auf denen ich auch bin.",
    "module_footer": "{0}cmds {1}",
    "module_page_empty": "Kein Modul auf dieser Seite.",
    "module_description_help": "Bekomme Hilfe für Befehle, Beschreibungen und Beispiele für deren Verwendung",
    "module_description_gambling": "Wette auf Würfel würfe, Blackjack, Slots, Münzwürfe oder anderes",
    "module_description_games": "Spiele ein Quiz, Nunchi, Hangman, Connect4 und andere Spiele",
    "module_description_nsfw": "NSFW Befehle.",
    "module_description_music": "Spiele Musik von YouTube, lokalen Dateien und Radio Streams",
    "module_description_utility": "Verwalte benutzerdefinierte Zitate, wiederholte Nachrichten und überprüfe Fakten über den Server",
    "module_description_administration": "Moderation, bestrafe Nutzer, richte selbst zuweisbare Rollen und Willkommensnachrichten ein",
    "module_description_permissions": "Richte Berechtigungen für Befehle ein, filtere Wörter und richte Abklingzeiten für Befehle ein",
    "module_description_searches": "Suche nach Witzen, Bilder von Tieren, Anime und Manga",
    "module_description_xp": "Erhalte XP basierend auf Chataktivität, prüfe Nutzer XP-karten",
    "module_description_missing": "Beschreibung für dieses Module fehlt.",
    "obsolete_use": "⚠ Obsolet, nutz stattdessen {0}.",
    "purge_user_confirm": "Bist du sicher, dass du {0} aus der Datenbank löschen willst?",
    "expr_import_no_input": "Ungültiger Input. Kein gültiger Dateiupload oder Input Text gefunden.",
    "expr_import_invalid_data": "Kann Datei nicht Analysieren. Stelle sicher, dass es eine gültige .yml Datei ist",
    "inv_expire": "Läuft ab in:",
    "inv_uses": "Nutzt:",
    "empty_page": "Diese Seite ist leer.",
    "pages": "Seiten",
    "favorites": "Favoriten",
    "tags": "Stichworte",
    "invalid_emoji_link": "Der angegebene Link is entweder kein Bild, oder größer als 256KB.",
    "emoji_add_error": "Fehler beim hinzufügen des Emoji. Es sind keine Emoji slots mehr vorhanden, oder die Bildgröße ist unangemessen.",
    "emoji_added": "Neuen Emoji hinzugefügt: {0}",
    "boost_on": "",
    "boost_off": "",
    "boostmsg_cur": "",
    "boostmsg_enable": "",
    "boostmsg_new": "",
    "boostdel_off": "",
    "boostdel_on": "",
    "log_ignored_channels": "Ignorierte Kanäle",
    "log_ignored_users": "Ignorierte User",
    "log_ignore_user": "Logging wird User {0} ignorieren",
    "log_not_ignore_user": "Logging wird nicht länger User {0} ignorieren",
    "log_ignore_chan": "Logging wird Kanal {0} ignorieren",
    "log_not_ignore_chan": "Logging wird nicht länger Kanal {0} ignorieren",
    "streams_cleared": "",
    "warn_weight": "Gewicht: {0}",
    "warn_count": "{0} momentan, {1} insgesamt",
    "mass_ban_in_progress": "Es werden {0} User gebannt...",
    "mass_ban_completed": "",
    "reminder_server_list": "",
    "imageonly_enable": "",
    "imageonly_disable": "",
    "transaction": "",
    "finished_track": "",
    "playing_track": "",
    "queued_track": "",
    "removed_track": "",
    "autoplaying": "",
    "music_autoplay_on": "",
    "music_autoplay_off": "",
    "track_moved": "",
    "atl_not_enabled": "",
    "channels": "",
    "track_not_found": "",
    "removed_track_error": "",
    "market_cap_dominance": "",
    "circulating_supply": "",
    "module_description_expressions": "",
    "deleted_x_servers": "",
    "curtr_gift": "",
    "curtr_award": "",
    "curtr_take": "",
    "expr_deleted": "",
    "expr_insuff_perms": "",
    "expressions": "",
    "expr_new": "",
    "expr_no_found": "",
    "expr_no_found_id": "",
    "exprs_cleared": "",
    "expr_reset": "",
    "expr_set": "",
    "expr_edited": "",
    "stream_online_delete_enabled": "",
    "stream_online_delete_disabled": "",
    "club_create_error_name": "",
    "club_desc_update": "",
    "bank_accounts": "",
    "module_description_medusa": "",
    "module_description_roblox": "",
    "list_of_medusae": "",
    "list_of_unloaded": "",
    "medusa_name_not_found": "",
    "medusa_info": "",
    "sneks_count": "",
    "commands_count": "",
    "no_medusa_loaded": "",
    "no_medusa_available": "",
    "loaded_medusae": "",
    "medusa_not_loaded": "",
    "medusa_possibly_cant_unload": "",
    "medusa_loaded": "",
    "medusa_unloaded": "",
    "medusa_empty": "",
    "medusa_already_loaded": "",
    "medusa_invalid_not_found": "",
    "bank_balance": "",
    "bank_deposited": "",
    "bank_withdrew": "",
    "bank_withdraw_insuff": "",
    "cmd_group_commands": "",
    "limit_reached": "",
    "feature_limit_reached_you": "",
    "feature_limit_reached_owner": "",
    "feature_limit_reached_either": "",
    "tier": "",
    "pledge": "",
    "expires": "",
    "commands": "",
    "groups": "",
    "modules": "",
    "no_quota_found": "",
    "patron_info": "",
    "quotas": "",
    "patron_not_enabled": "",
    "results_in": "",
    "patron_msg_sent": "",
    "cards": "",
    "hand_value": "",
    "roll2": "",
    "rolls": "",
    "available_tests": "",
    "test_results_for": "",
    "multiplier": "",
    "trivia_ended": "",
    "card": "",
    "guess": "",
    "repeater_skip_next": "",
    "repeater_dont_skip_next": "",
    "remind_timely": "",
    "xp_shop_disabled": "",
    "timely_time": "",
    "buy": "",
    "use": "",
    "in_use": "",
    "xp_shop_item_cant_use": "",
    "linkonly_enable": "",
    "linkonly_disable": "",
    "xp_shop_buy_required_tier": "",
    "available_commands": "",
    "xpadd_users": "",
    "xpshop_buy_success": "",
    "patron_insuff_tier": "",
    "xpshop_already_owned": "",
    "xpshop_item_not_found": "",
    "xpshop_website": ""
}